{
  "$schema": "./node_modules/ng-swagger-gen/ng-swagger-gen-schema.json",
  "swagger": "http://localhost:5000/swagger/v1/swagger.json",
  "output": "src/modules/api",
  "config": "ng-swagger-gen.json",
  "ignoreUnusedModels": true,
  "minParamsForContainer": 2,
  "defaultTag": "Api",
  "removeStaleFiles": true,
  "modelIndex": true,
  "serviceIndex": true,
  "apiModule": true
}